Analysis of an example dataset • InteRact
…
Use the function identify_conditions() to map conditions from intensity column names:

condition <- identify_conditions(proteinGroups_Cbl,
                                  Column_intensity_pattern = "^Intensity.",
                                  split = "_", 
                                  bckg_pos = 1,
                                  time_pos = 2,
                                  bio_pos = 3,
                                  tech_pos = 4)
print(condition)

## # A tibble: 90 x 5
##    column                    bckg  time  bio   tech 
##    <fct>                     <fct> <fct> <fct> <fct>
##  1 Intensity.Cbl_0_Ech1_R1   Cbl   0     Ech1  R1   
##  2 Intensity.Cbl_0_Ech1_R2   Cbl   0     Ech1  R2   
##  3 Intensity.Cbl_0_Ech1_R3   Cbl   0     Ech1  R3   
##  4 Intensity.Cbl_0_Ech2_R1   Cbl   0     Ech2  R1   
##  5 Intensity.Cbl_0_Ech2_R2   Cbl   0     Ech2  R2   
##  6 Intensity.Cbl_0_Ech2_R3   Cbl   0     Ech2  R3   
##  7 Intensity.Cbl_0_Ech3_R1   Cbl   0     Ech3  R1   
##  8 Intensity.Cbl_0_Ech3_R2   Cbl   0     Ech3  R2   
##  9 Intensity.Cbl_0_Ech3_R3   Cbl   0     Ech3  R3   
## 10 Intensity.Cbl_030_Ech1_R1 Cbl   030   Ech1  R1   
## # … with 80 more rows
…
